// Jest Snapshot v1, https://goo.gl/fbAQLP

exports[`<Search /> matches the snapshot 1`] = `
<div>
  <form
    className="search"
  >
    <div
      className="input-container"
    >
      <input
        className=""
        onChange={[Function]}
        placeholder="Search ..."
        type="text"
        value=""
      />
    </div>
    <div
      className="type-selector"
    >
      <label
        className="radio"
      >
        <input
          checked={true}
          name="key"
          onChange={[Function]}
          type="radio"
          value="name"
        />
        Name
      </label>
      <label
        className="radio"
      >
        <input
          checked={false}
          name="key"
          onChange={[Function]}
          type="radio"
          value="brewed_before"
        />
        Brewed Before
      </label>
    </div>
    <button
      className="button"
      disabled={false}
      onClick={[Function]}
      type="submit"
    >
      Submit
    </button>
  </form>
</div>
`;
